-------------------------------------------------------------------------------
Test set: testRunner
-------------------------------------------------------------------------------
Tests run: 25, Failures: 0, Errors: 0, Skipped: 0, Time elapsed: 44.263 s - in testRunner
